<svg xmlns="http://www.w3.org/2000/svg" width="16" height="16" viewBox="0 0 16 16">
    <path fill="currentColor" fill-rule="evenodd" d="M10.412 3.876c.41 0 .743.333.743.742v.58c0 .158.142.34.31.4.156.056.312.121.462.194.06.029.13.044.204.044.119 0 .229-.04.295-.106l.413-.413c.14-.14.327-.218.525-.218.199 0 .385.077.525.218l.67.67c.29.29.29.76 0 1.05l-.412.413c-.111.111-.14.34-.063.5.073.15.138.305.193.461.06.168.243.31.4.31h.58c.41 0 .743.333.743.743v.948c0 .41-.333.743-.742.743h-.58c-.158 0-.34.142-.4.31-.056.156-.12.311-.193.461-.077.16-.049.39.062.5l.413.413c.29.29.29.76 0 1.05l-.67.671c-.141.14-.327.218-.526.218-.198 0-.384-.078-.524-.218l-.414-.413c-.066-.066-.177-.106-.296-.106-.073 0-.145.016-.203.044-.15.072-.306.137-.462.193-.168.06-.31.242-.31.4v.58c0 .409-.333.742-.743.742h-.948c-.41 0-.742-.333-.742-.742v-.58c0-.158-.142-.34-.31-.4-.156-.056-.312-.12-.462-.193-.059-.029-.13-.044-.204-.044-.118 0-.23.04-.296.106l-.413.413c-.14.14-.326.218-.525.218-.198 0-.384-.078-.524-.218l-.672-.671c-.29-.29-.29-.76 0-1.05l.413-.413c.111-.111.14-.34.063-.5-.073-.15-.138-.306-.193-.461-.06-.168-.243-.31-.4-.31h-.58c-.41 0-.742-.334-.742-.743v-.948c0-.41.332-.742.742-.742h.58c.157 0 .34-.143.4-.31.055-.157.12-.312.193-.462.077-.16.048-.389-.063-.5l-.413-.413c-.14-.14-.217-.327-.217-.525s.077-.385.217-.525l.671-.67c.14-.14.327-.218.525-.218.199 0 .385.077.525.218l.413.412c.066.066.177.106.296.106.073 0 .145-.015.204-.044.15-.072.305-.137.461-.193.168-.06.31-.242.31-.4v-.58c0-.409.333-.742.743-.742zm-.474 3.887c-1.2 0-2.175.976-2.175 2.175 0 1.2.976 2.175 2.175 2.175 1.2 0 2.175-.976 2.175-2.175 0-1.2-.976-2.175-2.175-2.175zM3.392 0c.273 0 .495.222.495.495v.29c0 .022.033.07.073.084.082.029.164.063.243.101.012.006.03.01.048.01.032 0 .054-.01.06-.017l.207-.206c.093-.094.217-.145.35-.145.132 0 .256.051.35.144l.335.336c.193.193.193.506 0 .7l-.207.206c-.015.016-.025.071-.007.108.038.08.073.161.102.244.014.04.06.073.083.073h.29c.273 0 .495.221.495.494v.475c0 .272-.222.494-.495.494h-.29c-.022 0-.07.034-.083.073-.03.082-.064.164-.102.244-.018.037-.008.093.007.108l.207.207c.193.193.193.506 0 .7l-.336.335c-.093.093-.217.145-.35.145-.132 0-.256-.052-.35-.145l-.206-.207c-.006-.006-.028-.017-.06-.017-.018 0-.036.004-.048.01-.08.038-.161.073-.244.102-.04.014-.072.06-.072.083v.29c0 .273-.222.495-.495.495h-.474c-.273 0-.495-.222-.495-.495v-.29c0-.022-.034-.07-.073-.083-.082-.03-.164-.064-.243-.102-.013-.006-.03-.01-.048-.01-.032 0-.054.01-.06.017l-.207.207c-.094.093-.218.145-.35.145-.132 0-.257-.052-.35-.145l-.335-.336C.663 5.124.612 5 .612 4.867c0-.132.051-.256.145-.35l.206-.206c.016-.016.025-.071.007-.108-.038-.08-.072-.161-.102-.244-.014-.04-.06-.072-.083-.072h-.29C.222 3.887 0 3.665 0 3.392v-.474c0-.273.222-.495.495-.495h.29c.022 0 .07-.034.084-.073.029-.082.063-.164.101-.244.018-.036.009-.092-.007-.108l-.206-.206c-.193-.193-.193-.507 0-.7l.335-.335c.093-.094.218-.145.35-.145.132 0 .256.051.35.145l.206.206c.007.007.029.017.06.017.019 0 .036-.004.049-.01.078-.038.16-.072.243-.102.04-.014.073-.06.073-.083v-.29c0-.273.222-.495.495-.495zm-.237 2.19c-.532 0-.964.433-.964.964 0 .532.432.964.964.964.531 0 .964-.432.964-.964 0-.531-.433-.964-.964-.964z"/>
</svg>
